Lecture 13 - Data Manipulation Homework
…
  mutate(TimeTotal = TimeTotal/60) %>% 
  # join to decode equipment serial number
  inner_join(DF_Equipm, by = "IDEquipment") %>% 
  # join to decode Event Code meaning
  inner_join(DF_EvCode, by = "EventCode") %>% 
  # select only column needed
  select(TimeTotal, Name, EventText) %>% 
  # group by machine
  group_by(Name, EventText) %>% 
  # summarise
  summarise(MinTime = min(TimeTotal), 
            AvgTime = mean(TimeTotal),
            MaxTime = max(TimeTotal))

## Source: local data frame [44 x 5]
## Groups: Name [?]
## 
##          Name        EventText    MinTime   AvgTime   MaxTime
##         <chr>            <chr>      <dbl>     <dbl>     <dbl>
## 1  Machine #1 Step 1 SubStep 1 0.03333333 11.235372  41.86667
## 2  Machine #1 Step 1 SubStep 2 0.05000000 17.018531  22.73333
## 3  Machine #1 Step 1 SubStep 3 0.03333333  6.414719 121.81667
## 4  Machine #1 Step 1 SubStep 4 0.01666667  5.537826 152.91667
## 5  Machine #1 Step 2 SubStep 1 0.01666667  3.803060   4.55000
## 6  Machine #1 Step 2 SubStep 2 0.66666667 13.978512  17.50000
## 7  Machine #1 Step 2 SubStep 3 0.06666667 20.849425  27.11667
## 8  Machine #1 Step 2 SubStep 4 0.11666667  8.728427  19.73333
## 9  Machine #1 Step 2 SubStep 5 1.65000000 14.233488  19.15000
## 10 Machine #1 Step 2 SubStep 6 0.88333333 17.037326  19.00000
## # ... with 34 more rows
